[
  {
    "name": "bug",
    "color": "8E44AD",
    "description": "bug issue"
  },
  {
    "name": "security",
    "color": "8E44AD",
    "description": "security issue"
  },
  {
    "name": "chore",
    "color": "8E44AD",
    "description": "routine work"
  },
  {
    "name": "feature",
    "color": "8E44AD",
    "description": "feature issue"
  },
  {
    "name": "optimization",
    "color": "8E44AD",
    "description": "optimization issue"
  },
  {
    "name": "documentation",
    "color": "8E44AD",
    "description": "documentation issue"
  },
  {
    "name": "test",
    "color": "8E44AD",
    "description": "test issue"
  },
  {
    "name": "to analyze",
    "color": "FBCA04",
    "description": "need to be analyzed"
  },
  {
    "name": "to do",
    "color": "FBCA04",
    "description": "ready to work on"
  },
  {
    "name": "in progress",
    "color": "FBCA04",
    "description": "issue currently in progress"
  },
  {
    "name": "need more info",
    "color": "FBCA04",
    "description": "need more info to work on it"
  },
  {
    "name": "waiting review",
    "color": "FBCA04",
    "description": "waiting for review"
  },
  {
    "name": "wontfix",
    "color": "FBCA04",
    "description": "won't fix this issue"
  },
  {
    "name": "production",
    "color": "EE3F46",
    "description": "impact the production env"
  },
  {
    "name": "staging",
    "color": "F0AD4E",
    "description": "impact the staging env"
  },
  {
    "name": "critical",
    "color": "EE3F46",
    "description": "critical issue without workaround"
  },
  {
    "name": "major",
    "color": "F0AD4E",
    "description": "major issue with a workaround"
  },
  {
    "name": "minor",
    "color": "FBCA04",
    "description": "minor issue"
  },
  {
    "name": "to test",
    "color": "428BCA",
    "description": "need manual test before merge"
  },
  {
    "name": "validated",
    "color": "5CB85C",
    "description": "test ok: can be merged"
  },
  {
    "name": "failed",
    "color": "FF0000",
    "description": "test nok: cannot be merged"
  }
]

